1stYear/1stSemester/ISD/P/old/A5/simulation/qsim/GateDemo.msim.vcd
$comment
	File created using the following command:
		vcd file GateDemo.msim.vcd -direction
$end
$date
	Thu Nov 16 10:53:33 2023
$end
$version
	Questa Intel Starter FPGA Edition Version 2021.2
$end
$timescale
	1ps
$end

$scope module gatedemo_vhd_vec_tst $end
$var wire 1 ! cmpOut $end
$var wire 1 " input0 [3] $end
$var wire 1 # input0 [2] $end
$var wire 1 $ input0 [1] $end
$var wire 1 % input0 [0] $end
$var wire 1 & input1 [3] $end
$var wire 1 ' input1 [2] $end
$var wire 1 ( input1 [1] $end
$var wire 1 ) input1 [0] $end

$scope module i1 $end
$var wire 1 * gnd $end
$var wire 1 + vcc $end
$var wire 1 , unknown $end
$var wire 1 - devoe $end
$var wire 1 . devclrn $end
$var wire 1 / devpor $end
$var wire 1 0 ww_devoe $end
$var wire 1 1 ww_devclrn $end
$var wire 1 2 ww_devpor $end
$var wire 1 3 ww_cmpOut $end
$var wire 1 4 ww_input1 [3] $end
$var wire 1 5 ww_input1 [2] $end
$var wire 1 6 ww_input1 [1] $end
$var wire 1 7 ww_input1 [0] $end
$var wire 1 8 ww_input0 [3] $end
$var wire 1 9 ww_input0 [2] $end
$var wire 1 : ww_input0 [1] $end
$var wire 1 ; ww_input0 [0] $end
$var wire 1 < \cmpOut~output_o\ $end
$var wire 1 = \input1[3]~input_o\ $end
$var wire 1 > \input1[2]~input_o\ $end
$var wire 1 ? \input0[3]~input_o\ $end
$var wire 1 @ \input0[2]~input_o\ $end
$var wire 1 A \inst4~1_combout\ $end
$var wire 1 B \input1[0]~input_o\ $end
$var wire 1 C \input0[1]~input_o\ $end
$var wire 1 D \input1[1]~input_o\ $end
$var wire 1 E \input0[0]~input_o\ $end
$var wire 1 F \inst4~0_combout\ $end
$var wire 1 G \inst4~combout\ $end
$upscope $end
$upscope $end
$enddefinitions $end
#0
$dumpvars
0!
0*
1+
x,
1-
1.
1/
10
11
12
03
0<
1=
1>
0?
0@
0A
1B
0C
1D
0E
0F
0G
0"
0#
0$
0%
1&
1'
1(
1)
14
15
16
17
08
09
0:
0;
$end
#10000
1%
1;
1E
#20000
0%
1$
0;
1:
1C
0E
#30000
1%
1;
1E
1F
#40000
0%
0$
1#
0;
0:
19
1@
0C
0E
0F
#50000
1%
1;
1E
#60000
0%
1$
0;
1:
1C
0E
#70000
1%
1;
1E
1F
#80000
0%
0$
0#
1"
0;
0:
09
18
1?
0@
0C
0E
0F
#90000
1%
1;
1E
#100000
0%
1$
0;
1:
1C
0E
#110000
1%
1;
1E
1F
#120000
0%
0$
1#
0;
0:
19
1@
0C
0E
0F
1A
#130000
1%
1;
1E
#140000
0%
1$
0;
1:
1C
0E
#150000
1%
1;
1E
1F
1G
1<
13
1!
#160000
0%
0$
0#
0"
0;
0:
09
08
0?
0@
0C
0E
0F
0A
0G
0<
03
0!
#170000
1%
1;
1E
#180000
0%
1$
0;
1:
1C
0E
#190000
1%
1;
1E
1F
#200000
0%
0$
1#
0;
0:
19
1@
0C
0E
0F
#210000
1%
1;
1E
#220000
0%
1$
0;
1:
1C
0E
#230000
1%
1;
1E
1F
#240000
0%
0$
0#
1"
0;
0:
09
18
1?
0@
0C
0E
0F
#250000
1%
1;
1E
#260000
0%
1$
0;
1:
1C
0E
#270000
1%
1;
1E
1F
#280000
0%
0$
1#
0;
0:
19
1@
0C
0E
0F
1A
#290000
1%
1;
1E
#300000
0%
1$
0;
1:
1C
0E
#310000
1%
1;
1E
1F
1G
1<
13
1!
#320000
0%
0$
0#
0"
0;
0:
09
08
0?
0@
0C
0E
0F
0A
0G
0<
03
0!
#330000
1%
1;
1E
#340000
0%
1$
0;
1:
1C
0E
#350000
1%
1;
1E
1F
#360000
0%
0$
1#
0;
0:
19
1@
0C
0E
0F
#370000
1%
1;
1E
#380000
0%
1$
0;
1:
1C
0E
#390000
1%
1;
1E
1F
#400000
0%
0$
0#
1"
0;
0:
09
18
1?
0@
0C
0E
0F
#410000
1%
1;
1E
#420000
0%
1$
0;
1:
1C
0E
#430000
1%
1;
1E
1F
#440000
0%
0$
1#
0;
0:
19
1@
0C
0E
0F
1A
#450000
1%
1;
1E
#460000
0%
1$
0;
1:
1C
0E
#470000
1%
1;
1E
1F
1G
1<
13
1!
#480000
0%
0$
0#
0"
0;
0:
09
08
0?
0@
0C
0E
0F
0A
0G
0<
03
0!
#490000
1%
1;
1E
#500000
0%
1$
0;
1:
1C
0E
#510000
1%
1;
1E
1F
#520000
0%
0$
1#
0;
0:
19
1@
0C
0E
0F
#530000
1%
1;
1E
#540000
0%
1$
0;
1:
1C
0E
#550000
1%
1;
1E
1F
#560000
0%
0$
0#
1"
0;
0:
09
18
1?
0@
0C
0E
0F
#570000
1%
1;
1E
#580000
0%
1$
0;
1:
1C
0E
#590000
1%
1;
1E
1F
#600000
0%
0$
1#
0;
0:
19
1@
0C
0E
0F
1A
#610000
1%
1;
1E
#620000
0%
1$
0;
1:
1C
0E
#630000
1%
1;
1E
1F
1G
1<
13
1!
#640000
0%
0$
0#
0"
0;
0:
09
08
0?
0@
0C
0E
0F
0A
0G
0<
03
0!
#650000
1%
1;
1E
#660000
0%
1$
0;
1:
1C
0E
#670000
1%
1;
1E
1F
#680000
0%
0$
1#
0;
0:
19
1@
0C
0E
0F
#690000
1%
1;
1E
#700000
0%
1$
0;
1:
1C
0E
#710000
1%
1;
1E
1F
#720000
0%
0$
0#
1"
0;
0:
09
18
1?
0@
0C
0E
0F
#730000
1%
1;
1E
#740000
0%
1$
0;
1:
1C
0E
#750000
1%
1;
1E
1F
#760000
0%
0$
1#
0;
0:
19
1@
0C
0E
0F
1A
#770000
1%
1;
1E
#780000
0%
1$
0;
1:
1C
0E
#790000
1%
1;
1E
1F
1G
1<
13
1!
#800000
0%
0$
0#
0"
0;
0:
09
08
0?
0@
0C
0E
0F
0A
0G
0<
03
0!
#810000
1%
1;
1E
#820000
0%
1$
0;
1:
1C
0E
#830000
1%
1;
1E
1F
#840000
0%
0$
1#
0;
0:
19
1@
0C
0E
0F
#850000
1%
1;
1E
#860000
0%
1$
0;
1:
1C
0E
#870000
1%
1;
1E
1F
#880000
0%
0$
0#
1"
0;
0:
09
18
1?
0@
0C
0E
0F
#890000
1%
1;
1E
#900000
0%
1$
0;
1:
1C
0E
#910000
1%
1;
1E
1F
#920000
0%
0$
1#
0;
0:
19
1@
0C
0E
0F
1A
#930000
1%
1;
1E
#940000
0%
1$
0;
1:
1C
0E
#950000
1%
1;
1E
1F
1G
1<
13
1!
#960000
0%
0$
0#
0"
0;
0:
09
08
0?
0@
0C
0E
0F
0A
0G
0<
03
0!
#970000
1%
1;
1E
#980000
0%
1$
0;
1:
1C
0E
#990000
1%
1;
1E
1F
